Introduction to R
…
Attaching package: 'dplyr'

The following objects are masked from 'package:stats':

    filter, lag

The following objects are masked from 'package:base':

    intersect, setdiff, setequal, union

And we can take a look at the flights data by printing it to the console

print(flights)

# A tibble: 336,776 x 19
    year month   day dep_time sched_dep_time dep_delay arr_time sched_arr_time
   <int> <int> <int>    <int>          <int>     <dbl>    <int>          <int>
 1  2013     1     1      517            515         2      830            819
 2  2013     1     1      533            529         4      850            830
 3  2013     1     1      542            540         2      923            850
 4  2013     1     1      544            545        -1     1004           1022
 5  2013     1     1      554            600        -6      812            837
 6  2013     1     1      554            558        -4      740            728
 7  2013     1     1      555            600        -5      913            854
 8  2013     1     1      557            600        -3      709            723
 9  2013     1     1      557            600        -3      838            846
10  2013     1     1      558            600        -2      753            745
# ... with 336,766 more rows, and 11 more variables: arr_delay <dbl>,
#   carrier <chr>, flight <int>, tailnum <chr>, origin <chr>, dest <chr>,
#   air_time <dbl>, distance <dbl>, hour <dbl>, minute <dbl>, time_hour <dttm>

Although flights is a type of data frame, the output to the console is much neater than normal. This is because flights is actually a type of data frame called a tibble. The distinction doesn't make any practical difference to our analysis, for our needs it just prints tidier output to the console.

Selecting and Filtering

With dplyr, we can select a subset of columns using the select function. Lets select the month and the year from the dataset like so,

select(.data = flights, month, year)

# A tibble: 336,776 x 2
   month  year
   <int> <int>
 1     1  2013
 2     1  2013
 3     1  2013
 4     1  2013
 5     1  2013
 6     1  2013
 7     1  2013
 8     1  2013
 9     1  2013
10     1  2013
# ... with 336,766 more rows

We can also use dplyrs filter() function to filter the results to some logcial condition. For example, we can filter to only flights in January like so,

filter(.data = flights, month == 1)

# A tibble: 27,004 x 19
    year month   day dep_time sched_dep_time dep_delay arr_time sched_arr_time
   <int> <int> <int>    <int>          <int>     <dbl>    <int>          <int>
 1  2013     1     1      517            515         2      830            819
 2  2013     1     1      533            529         4      850            830
 3  2013     1     1      542            540         2      923            850
 4  2013     1     1      544            545        -1     1004           1022
 5  2013     1     1      554            600        -6      812            837
 6  2013     1     1      554            558        -4      740            728
 7  2013     1     1      555            600        -5      913            854
 8  2013     1     1      557            600        -3      709            723
 9  2013     1     1      557            600        -3      838            846
10  2013     1     1      558            600        -2      753            745
# ... with 26,994 more rows, and 11 more variables: arr_delay <dbl>,
#   carrier <chr>, flight <int>, tailnum <chr>, origin <chr>, dest <chr>,
#   air_time <dbl>, distance <dbl>, hour <dbl>, minute <dbl>, time_hour <dttm>

Notice when we passed the variables to the select() and filter() functions, we did so without quoting them (month instead of "month").

For people coming from other programming languages this quirk of R can be quite shocking. How does R know that month is a label and not a variable? or a function?

This comes down to a feature of R known as lazy evaluation. R doesn't attempt to execute or read a variable until it absolutely has too. Programmers like Hadley Wickham have used this property of R extensively in their packages to make code more human-readable and friendly.

Pipes

Say we wanted to combine the last two steps to both selecitng only a few columns and then filtering. TO achieve this, we could write,

filter(select(.data = flights, month, year), month == 1)

# A tibble: 27,004 x 2
   month  year
   <int> <int>
 1     1  2013
 2     1  2013
 3     1  2013
 4     1  2013
 5     1  2013
 6     1  2013
 7     1  2013
 8     1  2013
 9     1  2013
10     1  2013
# ... with 26,994 more rows

However, you can see that this isn't very human-readable. It's not too clear what exactly is happening, or what steps are performed in what order. You can imagine with complex data wrangling, this way of writing code will soon become unreadable and hard to maintain.

This is where the pipe operator (%>%) comes in handy. The pipe takes the result of the expression on the left hand side and passes it as the first argument to the right hand side. So the same set of calls becomes,

flights %>%
  select(month, year) %>%
  filter(month == 1)

# A tibble: 27,004 x 2
   month  year
   <int> <int>
 1     1  2013
 2     1  2013
 3     1  2013
 4     1  2013
 5     1  2013
 6     1  2013
 7     1  2013
 8     1  2013
 9     1  2013
10     1  2013
# ... with 26,994 more rows

Here we take flights and pipe it to the select() function. The first argument for select is .data = so flights is passed as this parameter. Within dplyr, all the data functions accept .data = first, so the pipe is extremely powerful to chain commands together.

Mutate

To mutate a data.frame is to change it by adding an additional column. The data for this new column can be a new vector, or it can be some calculation / operation on existing columns.

Lets add a column called distance_km than converts the distance column (in miles) to a distance in kilometers,

flights %>% 
  select(carrier, distance) %>% 
  mutate(distance_km = 1.61 * distance)

# A tibble: 336,776 x 3
   carrier distance distance_km
   <chr>      <dbl>       <dbl>
 1 UA          1400       2254 
 2 UA          1416       2280.
 3 AA          1089       1753.
 4 B6          1576       2537.
 5 DL           762       1227.
 6 UA           719       1158.
 7 B6          1065       1715.
 8 EV           229        369.
 9 B6           944       1520.
10 AA           733       1180.
# ... with 336,766 more rows
…
We specify the classifier (The Decision Tree). We also provide a formula telling the fit function what we are predicting and what to use as predictors. For this formula we specify the species column as the output, and use the shorthand species ~ . to indicate that everything else should be used as the predictors.

If we wanted to try and predict the species based solely on island and sex (a poor idea!), we would instead write species ~ island + sex.

Evaluate the model

We now assess the model based on data it has not previously seen, and deduce the accuracy of our model.

For this, we use our trained model to predict the species from the df_assessment data frame.

df_pred <- predict(model, new_data = df_assesment)

df_pred

# A tibble: 86 x 1
   .pred_class
   <fct>      
 1 Adelie     
 2 Adelie     
 3 Chinstrap  
 4 Adelie     
 5 Adelie     
 6 Adelie     
 7 Adelie     
 8 Adelie     
 9 Adelie     
10 Adelie     
# ... with 76 more rows

Notice only the predictions are returned in a single column names .pred_class. It will be more useful to have the original df_assessment appended, so instead we can bind the columns together using bind_cols.

df_pred <-
  df_assesment %>% 
  bind_cols(
    predict(model, new_data = df_assesment)
  )
  
df_pred

# A tibble: 86 x 9
   island  bill_length_mm bill_depth_mm flipper_length_... body_mass_g sex    year
   <chr>            <dbl>         <dbl>            <dbl>       <dbl> <chr> <dbl>
 1 Torger...           40.3          18                195        3250 fema...  2007
 2 Torger...           36.6          17.8              185        3700 fema...  2007
 3 Torger...           46            21.5              194        4200 male   2007
 4 Biscoe            35.9          19.2              189        3800 fema...  2007
 5 Biscoe            38.2          18.1              185        3950 male   2007
 6 Biscoe            40.6          18.6              183        3550 male   2007
 7 Dream             37.2          18.1              178        3900 male   2007
 8 Dream             39.8          19.1              184        4650 male   2007
 9 Dream             37            16.9              185        3000 fema...  2007
10 Dream             39.6          18.8              190        4600 male   2007
# ... with 76 more rows, and 2 more variables: species <fct>, .pred_class <fct>
…
