Classification of Penguins using tidymodels
…
rcp <- 
  recipe(species ~ ., data = df_analysis)

rcp <- 
  recipe(species ~ ., data = df_analysis) %>% 
  step_impute_mean(all_numeric_predictors()) %>% 
  step_impute_mode(all_nominal_predictors())

rcp %>% prep() %>% bake(df_analysis)

## # A tibble: 258 x 8
##    island  bill_length_mm bill_depth_mm flipper_length_... body_mass_g sex    year
##    <fct>            <dbl>         <dbl>            <int>       <int> <fct> <int>
##  1 Torger...           39.1          18.7              181        3750 male   2007
##  2 Torger...           40.3          18                195        3250 fema...  2007
##  3 Torger...           44.0          17.2              201        4212 male   2007
##  4 Torger...           39.3          20.6              190        3650 male   2007
##  5 Torger...           38.9          17.8              181        3625 fema...  2007
##  6 Torger...           39.2          19.6              195        4675 male   2007
##  7 Torger...           34.1          18.1              193        3475 male   2007
##  8 Torger...           42            20.2              190        4250 male   2007
##  9 Torger...           37.8          17.1              186        3300 male   2007
## 10 Torger...           37.8          17.3              180        3700 male   2007
## # ... with 248 more rows, and 1 more variable: species <fct>
…
