…
    The following objects are masked from 'package:stats':

        filter, lag

    The following objects are masked from 'package:base':

        intersect, setdiff, setequal, union

And we can take a look at the flights data by printing it to the console

``` r
print(flights)
```

    # A tibble: 336,776 x 19
        year month   day dep_time sched_dep_time dep_delay arr_time sched_arr_time
       <int> <int> <int>    <int>          <int>     <dbl>    <int>          <int>
     1  2013     1     1      517            515         2      830            819
     2  2013     1     1      533            529         4      850            830
     3  2013     1     1      542            540         2      923            850
     4  2013     1     1      544            545        -1     1004           1022
     5  2013     1     1      554            600        -6      812            837
     6  2013     1     1      554            558        -4      740            728
     7  2013     1     1      555            600        -5      913            854
     8  2013     1     1      557            600        -3      709            723
     9  2013     1     1      557            600        -3      838            846
    10  2013     1     1      558            600        -2      753            745
    # … with 336,766 more rows, and 11 more variables: arr_delay <dbl>,
    #   carrier <chr>, flight <int>, tailnum <chr>, origin <chr>, dest <chr>,
    #   air_time <dbl>, distance <dbl>, hour <dbl>, minute <dbl>, time_hour <dttm>
…
### Selecting and Filtering

With `dplyr`, we can select a subset of columns using the `select`
function. Lets select the month and the year from the dataset like so,

``` r
select(.data = flights, month, year)
```

    # A tibble: 336,776 x 2
       month  year
       <int> <int>
     1     1  2013
     2     1  2013
     3     1  2013
     4     1  2013
     5     1  2013
     6     1  2013
     7     1  2013
     8     1  2013
     9     1  2013
    10     1  2013
    # … with 336,766 more rows

We can also use `dplyr`s `filter()` function to filter the results to
some logcial condition. For example, we can filter to only flights in
January like so,

``` r
filter(.data = flights, month == 1)
```

    # A tibble: 27,004 x 19
        year month   day dep_time sched_dep_time dep_delay arr_time sched_arr_time
       <int> <int> <int>    <int>          <int>     <dbl>    <int>          <int>
     1  2013     1     1      517            515         2      830            819
     2  2013     1     1      533            529         4      850            830
     3  2013     1     1      542            540         2      923            850
     4  2013     1     1      544            545        -1     1004           1022
     5  2013     1     1      554            600        -6      812            837
     6  2013     1     1      554            558        -4      740            728
     7  2013     1     1      555            600        -5      913            854
     8  2013     1     1      557            600        -3      709            723
     9  2013     1     1      557            600        -3      838            846
    10  2013     1     1      558            600        -2      753            745
    # … with 26,994 more rows, and 11 more variables: arr_delay <dbl>,
    #   carrier <chr>, flight <int>, tailnum <chr>, origin <chr>, dest <chr>,
    #   air_time <dbl>, distance <dbl>, hour <dbl>, minute <dbl>, time_hour <dttm>
…
### Pipes

Say we wanted to combine the last two steps to both selecitng only a few
columns and then filtering. TO achieve this, we could write,

``` r
filter(select(.data = flights, month, year), month == 1)
```

    # A tibble: 27,004 x 2
       month  year
       <int> <int>
     1     1  2013
     2     1  2013
     3     1  2013
     4     1  2013
     5     1  2013
     6     1  2013
     7     1  2013
     8     1  2013
     9     1  2013
    10     1  2013
    # … with 26,994 more rows
…
This is where the pipe operator (`%>%`) comes in handy. The pipe takes
the result of the expression on the left hand side and passes it as the
first argument to the right hand side. So the same set of calls becomes,

``` r
flights %>%
  select(month, year) %>%
  filter(month == 1)
```

    # A tibble: 27,004 x 2
       month  year
       <int> <int>
     1     1  2013
     2     1  2013
     3     1  2013
     4     1  2013
     5     1  2013
     6     1  2013
     7     1  2013
     8     1  2013
     9     1  2013
    10     1  2013
    # … with 26,994 more rows
…
To mutate a data.frame is to change it by adding an additional column.
The data for this new column can be a new vector, or it can be some
calculation / operation on existing columns.

Lets add a column called `distance_km` than converts the `distance`
column (in miles) to a distance in kilometers,

``` r
flights %>% 
  select(carrier, distance) %>% 
  mutate(distance_km = 1.61 * distance)
```

    # A tibble: 336,776 x 3
       carrier distance distance_km
       <chr>      <dbl>       <dbl>
     1 UA          1400       2254 
     2 UA          1416       2280.
     3 AA          1089       1753.
     4 B6          1576       2537.
     5 DL           762       1227.
     6 UA           719       1158.
     7 B6          1065       1715.
     8 EV           229        369.
     9 B6           944       1520.
    10 AA           733       1180.
    # … with 336,766 more rows
…
### Evaluate the model

We now assess the model based on data it has not previously seen, and
deduce the accuracy of our model.

For this, we use our trained model to predict the species from the
`df_assessment` data frame.

``` r
df_pred <- predict(model, new_data = df_assesment)

df_pred
```

    # A tibble: 86 x 1
       .pred_class
       <fct>      
     1 Adelie     
     2 Adelie     
     3 Chinstrap  
     4 Adelie     
     5 Adelie     
     6 Adelie     
     7 Adelie     
     8 Adelie     
     9 Adelie     
    10 Adelie     
    # … with 76 more rows
…
``` r
df_pred <-
  df_assesment %>% 
  bind_cols(
    predict(model, new_data = df_assesment)
  )
  
df_pred
```

    # A tibble: 86 x 9
       island  bill_length_mm bill_depth_mm flipper_length_… body_mass_g sex    year
       <chr>            <dbl>         <dbl>            <dbl>       <dbl> <chr> <dbl>
     1 Torger…           40.3          18                195        3250 fema…  2007
     2 Torger…           36.6          17.8              185        3700 fema…  2007
     3 Torger…           46            21.5              194        4200 male   2007
     4 Biscoe            35.9          19.2              189        3800 fema…  2007
     5 Biscoe            38.2          18.1              185        3950 male   2007
     6 Biscoe            40.6          18.6              183        3550 male   2007
     7 Dream             37.2          18.1              178        3900 male   2007
     8 Dream             39.8          19.1              184        4650 male   2007
     9 Dream             37            16.9              185        3000 fema…  2007
    10 Dream             39.6          18.8              190        4600 male   2007
    # … with 76 more rows, and 2 more variables: species <fct>, .pred_class <fct>
…
